Supplementary Materials And Methods
…
Sequential iteration of minsampdata

Note that the regulations are colored according to expression changes of present and a previous value. So, it can be observed that whole gene expressions increase in comparison of initial steady-state. The overall regulations of gene expressions are as followings:

priming_graph(minsamp, competing_count = Competing_expression, miRNA_count = miRNA_expression)%>%
  update_how("Gene2", 2)%>%
  simulate(2)%>%
  activate(edges)%>%
  as_tibble()%>%
  select(Competing_name,comp_count_list,effect_list)%>%
  unnest()

## # A tibble: 21 x 3
##    Competing_name comp_count_list effect_list
##    <chr>                    <dbl>       <dbl>
##  1 Gene1                   10000         286.
##  2 Gene1                   10063.        222.
##  3 Gene1                   10062.        224.
##  4 Gene2                   10000         286.
##  5 Gene2                   19841.        444.
##  6 Gene2                   19845.        441.
##  7 Gene3                    5000         143.
##  8 Gene3                    5032.        111.
##  9 Gene3                    5031.        112.
## 10 Gene4                   10000         286.
## # ... with 11 more rows
…
Sequential iteration of minsampdata with interaction factors

When the graphs which were resulted from analyses were examined, it was observed that behaviours were same. But, when the results were analysed in terms of expression values, the regulation differences can be observed.

priming_graph(minsamp, competing_count = Competing_expression, miRNA_count = miRNA_expression, aff_factor = c(energy, seed_type), deg_factor = region)%>%
  update_how("Gene2", 2)%>%
  simulate(3)%>%
  activate(edges)%>%
  as_tibble()%>%
  select(Competing_name,comp_count_list,effect_list)%>%
  unnest()

## # A tibble: 28 x 3
##    Competing_name comp_count_list effect_list
##    <chr>                    <dbl>       <dbl>
##  1 Gene1                   10000       263.  
##  2 Gene1                   10065.      198.  
##  3 Gene1                   10064.      199.  
##  4 Gene1                   10064.      199.  
##  5 Gene2                   10000         6.58
##  6 Gene2                   19997.        9.91
##  7 Gene2                   19997.        9.88
##  8 Gene2                   19997.        9.88
##  9 Gene3                    5000        91.5 
## 10 Gene3                    5023.       68.8 
## # ... with 18 more rows
…
The common target perturbation (increasing to two fold at Gene4 expression in presence of interaction factors) resulted in more prominent efficiency at the same conditions (shown in following).

priming_graph(minsamp, competing_count = Competing_expression, miRNA_count = miRNA_expression, aff_factor = c(energy, seed_type), deg_factor = region)%>%
  update_how("Gene4", 2)%>%
  simulate(3)%>%
  activate(edges)%>%
  as_tibble()%>%
  select(Competing_name,comp_count_list,effect_list)%>%
  unnest()

## # A tibble: 28 x 3
##    Competing_name comp_count_list effect_list
##    <chr>                    <dbl>       <dbl>
##  1 Gene1                   10000       263.  
##  2 Gene1                   10028.      236.  
##  3 Gene1                   10027.      237.  
##  4 Gene1                   10027.      237.  
##  5 Gene2                   10000         6.58
##  6 Gene2                   10001.        5.89
##  7 Gene2                   10001.        5.90
##  8 Gene2                   10001.        5.90
##  9 Gene3                    5000        91.5 
## 10 Gene3                    5010.       81.9 
## # ... with 18 more rows
…
